,,,,,,,
,,,,,,,
,,,,,,,
,,,,,,,
,,,,,,,
,,,,,,,
,,,,,,,
,,,,,,,
,,,,,,,
,,,,,,,
,,,,,,,
,,,,,,,
,,,,,,,
,,,,,,,
,,,,,,,
,,,,,,,
,,,,,,,
,,,,,,,
,,,,,,,
,,,,,,,
,,,,,,,
,,,,,,,
,,,,,,,
,,,,,,,
,,,,,,,
,,,,,,,
,,,,,,,
,,,,,,,
,,,,,,,
,,,,,,,
,,,,,,,
,,,,,,,
,,,,,,,
,,,,,,,
,,,,,,,
,,,,,,,
,,,,,,,
,,,,,,,
"2016/03/31 14:30:03","ミスターフュージョンテスト様 <ueki@mrfusion.co.jp>","<ueki@mrfusion.co.jp>,<tk-honin@mrfusion.co.jp>","","","","[医療レーザー脱毛 女性]無料カウンセリング予約申込み通知","無料カウンセリング予約より申込がありました。
医療レーザー脱毛　女性

お名前
ミスターフュージョンテスト 

電話番号
0123456789 

メールアドレス
ueki@mrfusion.co.jp 

相談日　第一希望
  

相談日　第二希望
  

連絡方法のご希望
 

お問い合わせ内容
 

"
"2016/03/31 14:30:04","<ueki@mrfusion.co.jp>","ueki@mrfusion.co.jp","","","","[表参道スキンクリニック]無料カウンセリングのご予約を受け付けました","ミスターフュージョンテスト 様

表参道スキンクリニックです。
このたびは無料カウンセリングにお申込みいただき、ありがとうございます。

当院スタッフより、折り返しお電話にて確認のご連絡をさせていただきます。
*お電話でご相談の日時を確認後、予約が確定となります。

〜ご注意〜
本メールを受信された段階では、予約は確定しておりません。
本メールは自動で送信しておりますため、返信されましても、対応いたしかねますのでご了承ください。

■アクセス
地図：http://tk-honin.com/access/index.html
電話番号：0120-334-270
※当日場所がわからない場合はお電話でお問い合わせください

【お名前】
ミスターフュージョンテスト 

【電話番号】
0123456789 

【メールアドレス】
ueki@mrfusion.co.jp 

【相談日　第一希望】
  

【相談日　第二希望】
  

【連絡方法のご希望】
 

【お問い合わせ内容】
 

"
"2016/04/28 18:29:53","ミスターフュージョン　テスト様 <nishio@mrfusion.co.jp>","<info@tk-honin.com>,<tk-honin@mrfusion.co.jp>","","","","[医療レーザー脱毛 女性]無料カウンセリング予約申込み通知","無料カウンセリング予約より申込がありました。
医療レーザー脱毛　女性

お名前
ミスターフュージョン　テスト 

電話番号
01-2345-6789 

メールアドレス
nishio@mrfusion.co.jp 

相談日　第一希望
  

相談日　第二希望
  

連絡方法のご希望
 

お問い合わせ内容
 

"
"2016/04/28 18:29:53","<info@tk-honin.com>","nishio@mrfusion.co.jp","","","","[表参道スキンクリニック]無料カウンセリングのご予約を受け付けました","ミスターフュージョン　テスト 様

表参道スキンクリニックです。
このたびは無料カウンセリングにお申込みいただき、ありがとうございます。

当院スタッフより、折り返しお電話にて確認のご連絡をさせていただきます。
*お電話でご相談の日時を確認後、予約が確定となります。

〜ご注意〜
本メールを受信された段階では、予約は確定しておりません。
本メールは自動で送信しておりますため、返信されましても、対応いたしかねますのでご了承ください。

■アクセス
地図：http://tk-honin.com/access/index.html
電話番号：0120-334-270
※当日場所がわからない場合はお電話でお問い合わせください

【お名前】
ミスターフュージョン　テスト 

【電話番号】
01-2345-6789 

【メールアドレス】
nishio@mrfusion.co.jp 

【相談日　第一希望】
  

【相談日　第二希望】
  

【連絡方法のご希望】
 

【お問い合わせ内容】
 

"
"2016/05/23 11:58:51","みすたーふゅーじょん　てすと様 <yasuda@mrfusion.co.jp>","<info@tk-honin.com>,<tk-honin@mrfusion.co.jp>","","","","[医療レーザー脱毛 女性]無料カウンセリング予約申込み通知","無料カウンセリング予約より申込がありました。
医療レーザー脱毛　女性

お名前
みすたーふゅーじょん　てすと 

電話番号
03-5405-4343 

メールアドレス
yasuda@mrfusion.co.jp 

相談日　第一希望
  

相談日　第二希望
  

連絡方法のご希望
 

お問い合わせ内容
テスト送信です。 

"
"2016/05/23 11:58:51","<info@tk-honin.com>","yasuda@mrfusion.co.jp","","","","[表参道スキンクリニック]無料カウンセリングのご予約を受け付けました","みすたーふゅーじょん　てすと 様

表参道スキンクリニックです。
このたびは無料カウンセリングにお申込みいただき、ありがとうございます。

当院スタッフより、折り返しお電話にて確認のご連絡をさせていただきます。
*お電話でご相談の日時を確認後、予約が確定となります。

〜ご注意〜
本メールを受信された段階では、予約は確定しておりません。
本メールは自動で送信しておりますため、返信されましても、対応いたしかねますのでご了承ください。

■アクセス
地図：http://tk-honin.com/access/index.html
電話番号：0120-334-270
※当日場所がわからない場合はお電話でお問い合わせください

【お名前】
みすたーふゅーじょん　てすと 

【電話番号】
03-5405-4343 

【メールアドレス】
yasuda@mrfusion.co.jp 

【相談日　第一希望】
  

【相談日　第二希望】
  

【連絡方法のご希望】
 

【お問い合わせ内容】
テスト送信です。 

"
